^C:\USERS\ORION\DESKTOP\OPENWORLD\CLIENT\OPENWORLDCLIENT.DIR\DEBUG\IMPOSTER.OBJ|C:\USERS\ORION\DESKTOP\OPENWORLD\CLIENT\OPENWORLDCLIENT.DIR\DEBUG\MAINCLIENT.OBJ|C:\USERS\ORION\DESKTOP\OPENWORLD\CLIENT\OPENWORLDCLIENT.DIR\DEBUG\MAINMENU.OBJ|C:\USERS\ORION\DESKTOP\OPENWORLD\CLIENT\OPENWORLDCLIENT.DIR\DEBUG\MENU.OBJ|C:\USERS\ORION\DESKTOP\OPENWORLD\CLIENT\OPENWORLDCLIENT.DIR\DEBUG\PLANETAREA.OBJ|C:\USERS\ORION\DESKTOP\OPENWORLD\CLIENT\OPENWORLDCLIENT.DIR\DEBUG\PLANETLOADMENU.OBJ|C:\USERS\ORION\DESKTOP\OPENWORLD\CLIENT\OPENWORLDCLIENT.DIR\DEBUG\PLAYER.OBJ|C:\USERS\ORION\DESKTOP\OPENWORLD\CLIENT\OPENWORLDCLIENT.DIR\DEBUG\PROCSKY.OBJ
C:\USERS\ORION\DESKTOP\OPENWORLD\CLIENT\BIN\OPENWORLDCLIENT_D.ILK
C:\USERS\ORION\DESKTOP\OPENWORLD\CLIENT\BIN\OPENWORLDCLIENT_D.EXE
C:\USERS\ORION\DESKTOP\OPENWORLD\CLIENT\BIN\OPENWORLDCLIENT_D.PDB
