^C:\USERS\ORION\DESKTOP\OPENWORLD\SERVER\CMAKEFILES\3.8.2\COMPILERIDCXX\CMAKECXXCOMPILERID.CPP
C:\PROGRAM FILES (X86)\MICROSOFT VISUAL STUDIO\SHARED\14.0\VC\BIN\AMD64_X86\VCTIP.EXE
C:\WINDOWS\SYSTEM32\TZRES.DLL
C:\WINDOWS\GLOBALIZATION\SORTING\SORTDEFAULT.NLS
C:\PROGRAM FILES (X86)\MICROSOFT VISUAL STUDIO\SHARED\14.0\VC\BIN\AMD64_X86\1033\CLUI.DLL
