c:\users\orion\desktop\openworld\client\cmakefiles\generate.stamp
c:\users\orion\desktop\openworld\client\win32\debug\zero_check\zero_check.tlog\custombuild.command.1.tlog
c:\users\orion\desktop\openworld\client\win32\debug\zero_check\zero_check.tlog\custombuild.read.1.tlog
c:\users\orion\desktop\openworld\client\win32\debug\zero_check\zero_check.tlog\custombuild.write.1.tlog
