^C:\USERS\ORION\DESKTOP\OPENWORLD\SERVER\ARCHIVEWRITER.CPP|C:\USERS\ORION\DESKTOP\OPENWORLD\SERVER\MAINSERV.CPP|C:\USERS\ORION\DESKTOP\OPENWORLD\SHARED\PLANETAREA.CPP|C:\USERS\ORION\DESKTOP\OPENWORLD\SHARED\PLAYER.CPP|C:\USERS\ORION\DESKTOP\OPENWORLD\SHARED\PROCSKY.CPP
C:\USERS\ORION\DESKTOP\OPENWORLD\SERVER\OPENWORLDSERVER.DIR\DEBUG\VC140.PDB
C:\USERS\ORION\DESKTOP\OPENWORLD\SERVER\OPENWORLDSERVER.DIR\DEBUG\PROCSKY.OBJ
C:\USERS\ORION\DESKTOP\OPENWORLD\SERVER\OPENWORLDSERVER.DIR\DEBUG\PLAYER.OBJ
C:\USERS\ORION\DESKTOP\OPENWORLD\SERVER\OPENWORLDSERVER.DIR\DEBUG\PLANETAREA.OBJ
C:\USERS\ORION\DESKTOP\OPENWORLD\SERVER\OPENWORLDSERVER.DIR\DEBUG\MAINSERV.OBJ
C:\USERS\ORION\DESKTOP\OPENWORLD\SERVER\OPENWORLDSERVER.DIR\DEBUG\ARCHIVEWRITER.OBJ
C:\USERS\ORION\DESKTOP\OPENWORLD\SERVER\OPENWORLDSERVER.DIR\DEBUG\VC141.PDB
^C:\USERS\ORION\DESKTOP\OPENWORLD\SERVER\MAINSERV.CPP
C:\USERS\ORION\DESKTOP\OPENWORLD\SERVER\OPENWORLDSERVER.DIR\DEBUG\VC140.PDB
C:\USERS\ORION\DESKTOP\OPENWORLD\SERVER\OPENWORLDSERVER.DIR\DEBUG\VC141.PDB
^C:\USERS\ORION\DESKTOP\OPENWORLD\SHARED\PLAYER.CPP
C:\USERS\ORION\DESKTOP\OPENWORLD\SERVER\OPENWORLDSERVER.DIR\DEBUG\VC140.PDB
C:\USERS\ORION\DESKTOP\OPENWORLD\SERVER\OPENWORLDSERVER.DIR\DEBUG\VC141.PDB
^C:\USERS\ORION\DESKTOP\OPENWORLD\SHARED\PROCSKY.CPP
C:\USERS\ORION\DESKTOP\OPENWORLD\SERVER\OPENWORLDSERVER.DIR\DEBUG\VC140.PDB
C:\USERS\ORION\DESKTOP\OPENWORLD\SERVER\OPENWORLDSERVER.DIR\DEBUG\VC141.PDB
^C:\USERS\ORION\DESKTOP\OPENWORLD\SERVER\ARCHIVEWRITER.CPP|C:\USERS\ORION\DESKTOP\OPENWORLD\SHARED\PLANETAREA.CPP
C:\USERS\ORION\DESKTOP\OPENWORLD\SERVER\OPENWORLDSERVER.DIR\DEBUG\VC141.PDB
C:\USERS\ORION\DESKTOP\OPENWORLD\SERVER\OPENWORLDSERVER.DIR\DEBUG\PLANETAREA.OBJ
C:\USERS\ORION\DESKTOP\OPENWORLD\SERVER\OPENWORLDSERVER.DIR\DEBUG\ARCHIVEWRITER.OBJ
^C:\USERS\ORION\DESKTOP\OPENWORLD\SERVER\ARCHIVEWRITER.CPP
C:\USERS\ORION\DESKTOP\OPENWORLD\SERVER\OPENWORLDSERVER.DIR\DEBUG\VC141.PDB
C:\USERS\ORION\DESKTOP\OPENWORLD\SERVER\OPENWORLDSERVER.DIR\DEBUG\VC140.PDB
^C:\USERS\ORION\DESKTOP\OPENWORLD\SHARED\PLANETAREA.CPP
C:\USERS\ORION\DESKTOP\OPENWORLD\SERVER\OPENWORLDSERVER.DIR\DEBUG\VC141.PDB
C:\USERS\ORION\DESKTOP\OPENWORLD\SERVER\OPENWORLDSERVER.DIR\DEBUG\VC140.PDB
^C:\USERS\ORION\DESKTOP\OPENWORLD\SERVER\ARCHIVEWRITER.CPP|C:\USERS\ORION\DESKTOP\OPENWORLD\SERVER\MAINSERV.CPP|C:\USERS\ORION\DESKTOP\OPENWORLD\SHARED\IMPOSTER.CPP|C:\USERS\ORION\DESKTOP\OPENWORLD\SHARED\PLANETAREA.CPP|C:\USERS\ORION\DESKTOP\OPENWORLD\SHARED\PLAYER.CPP|C:\USERS\ORION\DESKTOP\OPENWORLD\SHARED\PROCSKY.CPP
C:\USERS\ORION\DESKTOP\OPENWORLD\SERVER\OPENWORLDSERVER.DIR\DEBUG\VC140.PDB
C:\USERS\ORION\DESKTOP\OPENWORLD\SERVER\OPENWORLDSERVER.DIR\DEBUG\PROCSKY.OBJ
C:\USERS\ORION\DESKTOP\OPENWORLD\SERVER\OPENWORLDSERVER.DIR\DEBUG\PLAYER.OBJ
C:\USERS\ORION\DESKTOP\OPENWORLD\SERVER\OPENWORLDSERVER.DIR\DEBUG\PLANETAREA.OBJ
C:\USERS\ORION\DESKTOP\OPENWORLD\SERVER\OPENWORLDSERVER.DIR\DEBUG\IMPOSTER.OBJ
C:\USERS\ORION\DESKTOP\OPENWORLD\SERVER\OPENWORLDSERVER.DIR\DEBUG\MAINSERV.OBJ
C:\USERS\ORION\DESKTOP\OPENWORLD\SERVER\OPENWORLDSERVER.DIR\DEBUG\ARCHIVEWRITER.OBJ
^C:\USERS\ORION\DESKTOP\OPENWORLD\SHARED\IMPOSTER.CPP
C:\USERS\ORION\DESKTOP\OPENWORLD\SERVER\OPENWORLDSERVER.DIR\DEBUG\VC140.PDB
