﻿  ArchiveWriter.cpp
  MainServ.cpp
C:\Program Files (x86)\Urho3D\include\Urho3D\ThirdParty\Bullet/LinearMath/btIDebugDraw.h(173): warning C4305: 'argument': truncation from 'double' to 'const btScalar'
C:\Program Files (x86)\Urho3D\include\Urho3D\ThirdParty\Bullet/LinearMath/btIDebugDraw.h(174): warning C4305: 'argument': truncation from 'double' to 'const btScalar'
C:\Program Files (x86)\Urho3D\include\Urho3D\ThirdParty\Bullet/LinearMath/btIDebugDraw.h(175): warning C4305: 'argument': truncation from 'double' to 'const btScalar'
C:\Program Files (x86)\Windows Kits\10\Include\10.0.15063.0\ucrt\corecrt_math_defines.h(22): warning C4005: 'M_PI': macro redefinition
  c:\program files (x86)\urho3d\include\urho3d\thirdparty\sdl\SDL_stdinc.h(440): note: see previous definition of 'M_PI'
  Imposter.cpp
C:\Users\Orion\Desktop\openWorld\Shared\Imposter.cpp(47): warning C4018: '<': signed/unsigned mismatch
C:\Users\Orion\Desktop\openWorld\Shared\Imposter.cpp(60): warning C4244: 'argument': conversion from 'double' to 'float', possible loss of data
C:\Users\Orion\Desktop\openWorld\Shared\Imposter.cpp(61): warning C4244: 'argument': conversion from 'unsigned int' to 'float', possible loss of data
C:\Users\Orion\Desktop\openWorld\Shared\Imposter.cpp(108): warning C4018: '<': signed/unsigned mismatch
C:\Users\Orion\Desktop\openWorld\Shared\Imposter.cpp(123): warning C4018: '<': signed/unsigned mismatch
  PlanetArea.cpp
C:\Users\Orion\Desktop\openWorld\Shared\PlanetArea.cpp(16): warning C4305: 'initializing': truncation from 'double' to 'float'
C:\Users\Orion\Desktop\openWorld\Shared\PlanetArea.cpp(16): warning C4305: 'argument': truncation from 'double' to 'float'
C:\Users\Orion\Desktop\openWorld\Shared\PlanetArea.cpp(320): warning C4244: 'argument': conversion from 'double' to 'float', possible loss of data
  Player.cpp
C:\Program Files (x86)\Urho3D\include\Urho3D\ThirdParty\Bullet/LinearMath/btIDebugDraw.h(173): warning C4305: 'argument': truncation from 'double' to 'const btScalar'
C:\Program Files (x86)\Urho3D\include\Urho3D\ThirdParty\Bullet/LinearMath/btIDebugDraw.h(174): warning C4305: 'argument': truncation from 'double' to 'const btScalar'
C:\Program Files (x86)\Urho3D\include\Urho3D\ThirdParty\Bullet/LinearMath/btIDebugDraw.h(175): warning C4305: 'argument': truncation from 'double' to 'const btScalar'
  ProcSky.cpp
C:\Users\Orion\Desktop\openWorld\Shared\ProcSky.cpp(79): warning C4305: 'argument': truncation from 'double' to 'float'
C:\Users\Orion\Desktop\openWorld\Shared\ProcSky.cpp(90): warning C4305: 'initializing': truncation from 'double' to 'float'
  Generating Code...
     Creating library C:/Users/Orion/Desktop/openWorld/Server/Debug/OpenWorldServer_d.lib and object C:/Users/Orion/Desktop/openWorld/Server/Debug/OpenWorldServer_d.exp
  OpenWorldServer.vcxproj -> C:\Users\Orion\Desktop\openWorld\Server\bin\OpenWorldServer_d.exe
